P-s Win# PMT#
1 1 92  209
1 2 164 91
1 3 128 114
1 4 146 38
1 5 110 83
1 6 74  178
2 1 73  169
2 2 91  153
2 3 109 185
2 4 127 207
2 5 145 199
2 6 163 90
3 1 72  102
3 2 90  79
3 3 108 151
3 4 126 11
3 5 144 200
3 6 162 58
4 1 65  138
4 2 83  73
4 3 101 141
4 4 119 210
4 5 137 130
4 6 155 118
5 1 66  158
5 2 84  127
5 3 102 161
5 4 120 204
5 5 138 18
5 6 156 154
6 1 67  144
6 2 85  23
6 3 103 128
6 4 121 131
6 5 139 202
6 6 157 206
7 1 68  37
7 2 86  70
7 3 104 107
7 4 122 81
7 5 140 157
7 6 158 189
8 1 69  163
8 2 87  171
8 3 105 98
8 4 123 111
8 5 141 30
8 6 159 93
9 1 70  123
9 2 88  78
9 3 106 65
9 4 124 10
9 5 142 188
9 6 160 167
10  1 71  165
10  2 89  195
10  3 107 64
10  4 125 217
10  5 143 19
10  6 161 170
11  1 61  87
11  2 79  212
11  3 97  160
11  4 115 124
11  5 133 100
11  6 151 105
12  1 62  20
12  2 80  214
12  3 98  66
12  4 116 101
12  5 134 59
12  6 152 63
13  1 60  121
13  2 78  216
13  3 96  224
13  4 114 119
13  5 132 142
13  6 150 213
14  1 59  175
14  2 77  177
14  3 95  149
14  4 113 89
14  5 131 9
14  6 149 129
15  1 58  41
15  2 76  88
15  3 94  68
15  4 112 225
15  5 130 60
15  6 148 69
16  1 57  56
16  2 75  35
16  3 93  109
16  4 111 139
16  5 129 94
16  6 147 113
17  1 63  16
17  2 81  143
17  3 99  96
17  4 117 82
17  5 135 122
17  6 153 12
18  1 64  187
18  2 82  17
18  3 100 193
18  4 118 184
18  5 136 235
18  6 154 222
19  1 47  197
19  2 46  76
19  3 52  182
19  4 54  6
19  5 56  103
19  6 51  53
20  1 48  29
20  2 43  218
20  3 44  229
20  4 45  49
20  5 49  134
20  6 50  92
21  1 53  85
21  2 55  179
21  3 30  233
21  4 32  34
21  5 36  215
21  6 35  27
22  1 42  4
22  2 41  80
22  3 40  145
22  4 29  42
22  5 31  67
22  6 34  55
23  1 33  99
23  2 39  228
23  3 38  48
23  4 37  156
23  5 15  136
23  6 16  39
24  1 17  74
24  2 21  8
24  3 22  51
24  4 25  57
24  5 27  2
24  6 11  150
25  1 5 172
25  2 10  183
25  3 9 62
25  4 1 194
25  5 6 84
25  6 3 14
26  1 23  168
26  2 24  231
26  3 28  227
26  4 26  32
26  5 19  97
26  6 20  203
27  1 18  40
27  2 4 5
27  3 12  61
27  4 7 44
27  5 8 52
27  6 2 120
28  1 14  71
28  2 13  219
28  3 60 121
28  4 53 85
