 178	  74	   0	   0	 500	9.566011e+03
  83	 110	   1	   1	   0	0.000000e+00
  38	 146	   2	   0	 500	8.368729e+03
 114	 128	   3	   0	 500	7.132914e+03
 160	 164	   4	   0	 500	6.545823e+03
 209	  92	   5	   0	 500	5.838874e+03
  90	 163	   6	   0	 500	9.420251e+03
 199	 145	   7	   0	 500	1.125168e+04
 207	 127	   8	   0	 500	6.559548e+03
 185	 109	   9	   0	 500	7.977880e+03
 153	  91	  10	   0	 500	9.133598e+03
 169	  73	  11	   0	 500	8.764834e+03
  58	 162	  12	   0	 500	9.497874e+03
 200	 144	  13	   0	 500	7.361019e+03
  87	  61	  14	   1	   0	0.000000e+00
 151	 108	  15	   0	 500	8.108798e+03
  79	  90	  16	   0	 500	1.270022e+04
 102	  72	  17	   0	 500	5.775347e+03
 118	 155	  18	   0	 500	7.998853e+03
 130	 137	  19	   0	 500	6.451950e+03
 210	 119	  20	   0	 500	7.812216e+03
 141	 101	  21	   1	   0	0.000000e+00
  73	  83	  22	   0	 500	4.151386e+04
 138	  65	  23	   0	 500	7.027829e+03
 154	 156	  24	   0	 500	8.115470e+03
  18	 138	  25	   0	 500	9.255946e+03
 204	 120	  26	   0	 500	7.235650e+03
 161	 102	  27	   0	 500	6.270795e+03
 127	  84	  28	   0	 500	7.902131e+03
 158	  66	  29	   0	 500	5.889581e+03
 206	 157	  30	   0	 500	5.148639e+03
 202	 139	  31	   0	 500	5.346747e+03
 131	 121	  32	   0	 500	6.707369e+03
 128	 103	  33	   0	 500	1.044340e+04
  23	  85	  34	   1	   0	0.000000e+00
 144	  67	  35	   0	 500	1.025361e+04
 189	 158	  36	   0	 500	8.116396e+03
 157	 140	  37	   0	 500	6.271795e+03
  81	 122	  38	   0	 500	7.640009e+03
 107	 104	  39	   0	 500	6.790883e+03
  70	  86	  40	   0	 500	2.726639e+04
  37	  68	  41	   0	 500	4.449181e+03
  93	 159	  42	   1	   0	0.000000e+00
  30	 141	  43	   0	 500	5.737876e+03
 111	 123	  44	   0	 500	5.997899e+03
  98	 105	  45	   0	 500	7.626477e+03
 171	  87	  46	   0	 500	5.380862e+03
 163	  69	  47	   0	 500	7.661691e+03
 167	 160	  48	   0	 500	7.882379e+03
 188	 142	  49	   0	 500	8.070055e+03
  10	 124	  50	   0	 500	8.014225e+03
  65	 106	  51	   0	 500	1.259736e+04
  78	  88	  52	   0	 500	2.839883e+04
 123	  70	  53	   0	 500	6.590290e+03
 170	 161	  54	   0	 500	6.281021e+03
  19	 143	  55	   0	 500	7.295216e+03
 217	 125	  56	   0	 500	7.805186e+03
  64	 107	  57	   0	 500	6.229228e+03
 190	  89	  58	   0	 500	7.225474e+03
 165	  71	  59	   0	 500	4.980397e+03
 105	 151	  60	   1	   0	0.000000e+00
 100	 133	  61	   0	 500	4.543162e+03
 124	 115	  62	   0	 500	8.922899e+03
  91	  97	  63	   0	 500	7.955544e+03
 212	  79	  64	   0	 500	8.295480e+03
  11	 126	  65	   1	   0	0.000000e+00
  63	 152	  66	   0	 500	7.039347e+03
  59	 134	  67	   0	 500	9.087986e+03
 101	 116	  68	   0	 500	5.432442e+03
  66	  98	  69	   0	 500	1.072691e+04
 214	  80	  70	   0	 500	5.109712e+03
  20	  62	  71	   0	 500	8.208340e+03
 213	 150	  72	   0	 500	7.652806e+03
 142	 132	  73	   0	 500	9.068083e+03
 119	 114	  74	   0	 500	6.252666e+03
 224	  96	  75	   0	 500	7.191690e+03
 216	  78	  76	   0	 500	7.640625e+03
 129	 149	  78	   0	 500	4.735852e+03
   9	 131	  79	   0	 500	9.086324e+03
  89	 113	  80	   0	 500	8.412712e+03
 149	  95	  81	   0	 500	8.535610e+03
 177	  77	  82	   0	 500	0.000000e+00
 175	  59	  83	   0	 500	7.469230e+03
  69	 148	  84	   0	 500	7.549766e+03
  60	 130	  85	   0	 500	8.531271e+03
 225	 112	  86	   0	 500	7.840331e+03
  68	  94	  87	   0	 500	8.986907e+03
  88	  76	  88	   0	 500	7.663998e+03
  41	  58	  89	   0	 500	7.148287e+03
 113	 147	  90	   0	 500	4.721829e+03
  94	 129	  91	   0	 500	5.525362e+03
 139	 111	  92	   0	 500	7.876613e+03
 109	  93	  93	   0	 500	7.156869e+03
  35	  75	  94	   0	 500	6.442564e+03
  56	  57	  95	   0	 500	8.528079e+03
  12	 153	  96	   0	 500	7.731077e+03
 122	 135	  97	   0	 500	7.248964e+03
  82	 117	  98	   0	 500	8.376786e+03
  96	  99	  99	   0	 500	1.025361e+04
 143	  81	 100	   0	 500	7.713751e+03
  16	  63	 101	   0	 500	6.590398e+03
 222	 154	 102	   0	 500	8.266825e+03
 235	 136	 103	   0	 500	8.651138e+03
 184	 118	 104	   1	   0	0.000000e+00
 192	 100	 105	   0	 500	6.545823e+03
  17	  82	 106	   0	 500	6.913855e+03
 187	  64	 107	   0	 500	7.300613e+03
  53	  51	 108	   0	 500	7.629644e+03
 103	  56	 109	   0	 500	7.135564e+03
   6	  54	 110	   0	 500	8.619229e+03
 182	  52	 111	   0	 500	9.872322e+03
  76	  46	 112	   0	 500	2.674953e+04
 197	  47	 113	   0	 500	7.459823e+03
  92	  50	 114	   0	 500	8.852639e+03
 134	  49	 115	   0	 500	8.669808e+03
  49	  45	 116	   0	 500	6.162904e+03
 229	  44	 117	   0	 500	0.000000e+00
 218	  43	 118	   0	 500	7.947107e+03
  29	  48	 119	   0	 500	6.802494e+03
  27	  35	 120	   0	 500	9.877091e+03
 215	  36	 121	   0	 500	5.763113e+03
  34	  32	 122	   0	 500	5.836173e+03
 233	  30	 123	   0	 500	8.104056e+03
 179	  55	 124	   0	 500	0.000000e+00
  55	  34	 126	   0	 500	7.897631e+03
  67	  31	 127	   0	 500	7.984922e+03
  42	  29	 128	   0	 500	4.751956e+03
 145	  40	 129	   0	 500	7.467341e+03
  80	  41	 130	   0	 500	1.249851e+04
   4	  42	 131	   1	   0	0.000000e+00
  39	  16	 132	   0	 500	8.556007e+03
 136	  15	 133	   0	 500	9.919107e+03
 156	  37	 134	   0	 500	7.524558e+03
  48	  38	 135	   0	 500	1.085934e+04
 228	  39	 136	   0	 500	7.219184e+03
  99	  33	 137	   0	 500	8.207801e+03
 150	  11	 138	   0	 500	5.427357e+03
   2	  27	 139	   0	 500	7.776619e+03
  57	  25	 140	   0	 500	1.143927e+04
  51	  22	 141	   0	 500	7.912513e+03
   8	  21	 142	   0	 500	9.675043e+03
  74	  17	 143	   1	   0	0.000000e+00
  14	   3	 144	   0	 500	8.015422e+03
  84	   6	 145	   0	 500	1.266449e+04
 194	   1	 146	   0	 500	9.201274e+03
  62	   9	 147	   0	 500	5.699573e+03
 183	  10	 148	   0	 500	7.885053e+03
 172	   5	 149	   0	 500	9.694627e+03
 203	  20	 150	   0	 500	5.486169e+03
  97	  19	 151	   0	 500	8.219321e+03
  32	  26	 152	   0	 500	1.058458e+04
 227	  28	 153	   0	 500	5.139879e+03
 231	  24	 154	   0	 500	9.094159e+03
 168	  23	 155	   0	 500	8.482551e+03
 120	   2	 156	   0	 500	7.349063e+03
  52	   8	 157	   0	 500	7.723839e+03
  44	   7	 158	   0	 500	1.032200e+04
  61	  12	 159	   0	 500	9.072133e+03
   5	   4	 160	   0	 500	1.085348e+04
  40	  18	 161	   0	 500	7.122322e+03
  85	  53	 164	   0	 500	7.086461e+03
 121	  60	 165	   0	 500	5.892118e+03
 219	  13	 166	   0	 500	0.000000e+00
  71	  14	 167	   0	 500	4.348897e+04
1008	 172	 168	   2	1300	0.000000e+00
1006	 170	 169	   2	1300	0.000000e+00
1004	 168	 170	   2	1300	0.000000e+00
1003	 167	 171	   2	1300	0.000000e+00
1001	 165	 172	   2	1300	0.000000e+00
1002	 166	 173	   2	1300	0.000000e+00
1007	 171	 178	   2	1300	0.000000e+00
1005	 169	 179	   2	1300	0.000000e+00
