 178	  74	   0	   0	1167	1.494899e+06
  83	 110	   1	   1	   0	0.000000e+00
  38	 146	   2	   0	1142	1.497170e+06
 114	 128	   3	   0	1217	1.496421e+06
 160	 164	   4	   0	1104	1.498987e+06
 209	  92	   5	   0	1288	1.494417e+06
  90	 163	   6	   0	1144	1.492565e+06
 199	 145	   7	   0	1169	1.498862e+06
 207	 127	   8	   0	1179	1.496498e+06
 185	 109	   9	   0	1140	1.495457e+06
 153	  91	  10	   0	1197	1.495295e+06
 169	  73	  11	   0	1155	1.497343e+06
  58	 162	  12	   0	1098	1.493903e+06
 200	 144	  13	   0	1223	1.494064e+06
  87	  61	  14	   1	   0	0.000000e+00
 151	 108	  15	   0	1166	1.493359e+06
  79	  90	  16	   0	1148	1.498959e+06
 102	  72	  17	   0	1185	1.496089e+06
 118	 155	  18	   0	1114	1.495939e+06
 130	 137	  19	   0	1187	1.496992e+06
 210	 119	  20	   0	1215	1.498178e+06
 141	 101	  21	   1	   0	0.000000e+00
  73	  83	  22	   0	1129	1.494784e+06
 138	  65	  23	   0	1176	1.498764e+06
 154	 156	  24	   0	1149	1.496161e+06
  18	 138	  25	   0	1160	1.492685e+06
 204	 120	  26	   0	1191	1.492451e+06
 161	 102	  27	   0	1218	1.497573e+06
 127	  84	  28	   0	1126	1.497394e+06
 158	  66	  29	   0	1180	1.497500e+06
 206	 157	  30	   0	1283	1.497675e+06
 202	 139	  31	   0	1162	1.494676e+06
 131	 121	  32	   0	1205	1.499537e+06
 128	 103	  33	   0	1150	1.495340e+06
  23	  85	  34	   1	   0	0.000000e+00
 144	  67	  35	   0	1165	1.494869e+06
 189	 158	  36	   0	1107	1.491861e+06
 157	 140	  37	   0	1155	1.497663e+06
  81	 122	  38	   0	1176	1.495761e+06
 107	 104	  39	   0	1238	1.495349e+06
  70	  86	  40	   0	1118	1.499675e+06
  37	  68	  41	   0	1284	1.497895e+06
  93	 159	  42	   1	   0	0.000000e+00
  30	 141	  43	   0	1189	1.492902e+06
 111	 123	  44	   0	1251	1.498610e+06
  98	 105	  45	   0	1162	1.496105e+06
 171	  87	  46	   0	1125	1.496231e+06
 163	  69	  47	   0	1155	1.496512e+06
 167	 160	  48	   0	1135	1.497003e+06
 188	 142	  49	   0	1131	1.498405e+06
  10	 124	  50	   0	1141	1.498244e+06
  65	 106	  51	   0	1106	1.499291e+06
  78	  88	  52	   0	1173	1.497358e+06
 123	  70	  53	   0	1194	1.492995e+06
 170	 161	  54	   0	1207	1.495645e+06
  19	 143	  55	   0	1103	1.497970e+06
 217	 125	  56	   0	1109	1.498751e+06
  64	 107	  57	   0	1146	1.497797e+06
 190	  89	  58	   0	1147	1.492368e+06
 165	  71	  59	   0	1231	1.493198e+06
 105	 151	  60	   1	   0	0.000000e+00
 100	 133	  61	   0	1278	1.499976e+06
 124	 115	  62	   0	1098	1.494626e+06
  91	  97	  63	   0	1136	1.494703e+06
 212	  79	  64	   0	1170	1.495376e+06
  11	 126	  65	   1	   0	0.000000e+00
  63	 152	  66	   0	1204	1.498432e+06
  59	 134	  67	   0	1131	1.492954e+06
 101	 116	  68	   0	1138	1.494451e+06
  66	  98	  69	   0	1160	1.499302e+06
 214	  80	  70	   0	1261	1.496619e+06
  20	  62	  71	   0	1115	1.495388e+06
 213	 150	  72	   0	1151	1.499503e+06
 142	 132	  73	   0	1229	1.499756e+06
 119	 114	  74	   0	1194	1.492455e+06
 224	  96	  75	   0	1163	1.492122e+06
 216	  78	  76	   0	1205	1.497032e+06
 129	 149	  78	   0	1283	1.499534e+06
   9	 131	  79	   0	1142	1.496684e+06
  89	 113	  80	   0	1144	1.496686e+06
 149	  95	  81	   0	1195	1.496698e+06
 177	  77	  82	   0	   0	0.000000e+00
 175	  59	  83	   0	1166	1.497120e+06
  69	 148	  84	   0	1202	1.496126e+06
  60	 130	  85	   0	1130	1.499896e+06
 225	 112	  86	   0	1143	1.494405e+06
  68	  94	  87	   0	1110	1.491876e+06
  88	  76	  88	   0	1169	1.496166e+06
  41	  58	  89	   0	1254	1.493809e+06
 113	 147	  90	   0	1187	1.495587e+06
  94	 129	  91	   0	1196	1.492820e+06
 139	 111	  92	   0	1147	1.497235e+06
 109	  93	  93	   0	1133	1.494756e+06
  35	  75	  94	   0	1126	1.495521e+06
  56	  57	  95	   0	1128	1.494702e+06
  12	 153	  96	   0	1096	1.497201e+06
 122	 135	  97	   0	1139	1.491587e+06
  82	 117	  98	   0	1175	1.497819e+06
  96	  99	  99	   0	1165	1.494869e+06
 143	  81	 100	   0	1127	1.494194e+06
  16	  63	 101	   0	1166	1.499863e+06
 222	 154	 102	   0	1191	1.496993e+06
 235	 136	 103	   0	1149	1.492210e+06
 184	 118	 104	   0	1163	1.493054e+06
 192	 100	 105	   0	1104	1.498987e+06
  17	  82	 106	   0	1151	1.497268e+06
 187	  64	 107	   0	1220	1.499949e+06
  53	  51	 108	   0	1132	1.496256e+06
 103	  56	 109	   0	1213	1.493894e+06
   6	  54	 110	   0	1183	1.499052e+06
 182	  52	 111	   0	1121	1.497521e+06
  76	  46	 112	   0	1175	1.496393e+06
 197	  47	 113	   0	1139	1.497526e+06
  92	  50	 114	   0	1158	1.498392e+06
 134	  49	 115	   0	1132	1.491870e+06
  49	  45	 116	   0	1176	1.494215e+06
 229	  44	 117	   0	   0	0.000000e+00
 218	  43	 118	   0	1268	1.498198e+06
  29	  48	 119	   0	1172	1.494513e+06
  27	  35	 120	   0	1208	1.494344e+06
 215	  36	 121	   0	1217	1.496789e+06
  34	  32	 122	   0	1140	1.496338e+06
 233	  30	 123	   0	1109	1.495376e+06
 179	  55	 124	   0	   0	0.000000e+00
  55	  34	 126	   0	1171	1.493317e+06
  67	  31	 127	   0	1157	1.499333e+06
  42	  29	 128	   0	1148	1.495539e+06
 145	  40	 129	   0	1119	1.497081e+06
  80	  41	 130	   0	1143	1.499373e+06
   4	  42	 131	   1	   0	0.000000e+00
  39	  16	 132	   0	1150	1.496179e+06
 136	  15	 133	   0	1133	1.493536e+06
 156	  37	 134	   0	1253	1.494899e+06
  48	  38	 135	   0	1183	1.496814e+06
 228	  39	 136	   0	1145	1.499093e+06
  99	  33	 137	   0	1179	1.498193e+06
 150	  11	 138	   0	1198	1.495163e+06
   2	  27	 139	   0	1161	1.492008e+06
  57	  25	 140	   0	1125	1.496288e+06
  51	  22	 141	   0	1117	1.493952e+06
   8	  21	 142	   0	1196	1.495865e+06
  74	  17	 143	   1	   0	0.000000e+00
  14	   3	 144	   0	1213	1.495485e+06
  84	   6	 145	   0	1150	1.497229e+06
 194	   1	 146	   0	1178	1.494752e+06
  62	   9	 147	   0	1230	1.498755e+06
 183	  10	 148	   0	1200	1.493723e+06
 172	   5	 149	   0	1107	1.496088e+06
 203	  20	 150	   0	1165	1.495681e+06
  97	  19	 151	   0	1213	1.493293e+06
  32	  26	 152	   0	1082	1.491670e+06
 227	  28	 153	   0	1218	1.493094e+06
 231	  24	 154	   0	1167	1.495305e+06
 168	  23	 155	   0	1147	1.496316e+06
 120	   2	 156	   0	1211	1.496644e+06
  52	   8	 157	   0	1152	1.496572e+06
  44	   7	 158	   0	1151	1.498072e+06
  61	  12	 159	   0	1181	1.496208e+06
   5	   4	 160	   0	1115	1.493347e+06
  40	  18	 161	   0	1172	1.499531e+06
  85	  53	 164	   0	1196	1.499764e+06
 121	  60	 165	   0	1154	1.495865e+06
 219	  13	 166	   0	   0	0.000000e+00
  71	  14	 167	   0	1105	1.494062e+06
1008	 172	 168	   2	1400	0.000000e+00
1006	 170	 169	   2	1350	0.000000e+00
1004	 168	 170	   2	1350	0.000000e+00
1003	 167	 171	   2	1350	0.000000e+00
1001	 165	 172	   2	1300	0.000000e+00
1002	 166	 173	   2	1300	0.000000e+00
1007	 171	 178	   2	1350	0.000000e+00
1005	 169	 179	   2	1400	0.000000e+00
