 178	  74	   0	   0	 793	1.494644e+05
  83	 110	   1	   1	   0	0.000000e+00
  38	 146	   2	   0	 791	1.491682e+05
 114	 128	   3	   0	 829	1.489258e+05
 160	 164	   4	   0	 789	1.496161e+05
 209	  92	   5	   0	 870	1.499504e+05
  90	 163	   6	   0	 785	1.489252e+05
 199	 145	   7	   0	 783	1.490108e+05
 207	 127	   8	   0	 819	1.491011e+05
 185	 109	   9	   0	 793	1.492151e+05
 153	  91	  10	   0	 807	1.495542e+05
 169	  73	  11	   0	 794	1.499567e+05
  58	 162	  12	   0	 767	1.487591e+05
 200	 144	  13	   0	 830	1.494101e+05
  87	  61	  14	   1	   0	0.000000e+00
 151	 108	  15	   0	 802	1.489414e+05
  79	  90	  16	   0	 768	1.491752e+05
 102	  72	  17	   0	 829	1.498658e+05
 118	 155	  18	   0	 783	1.496297e+05
 130	 137	  19	   0	 823	1.490043e+05
 210	 119	  20	   0	 823	1.492928e+05
 141	 101	  21	   1	   0	0.000000e+00
  73	  83	  22	   0	 669	1.494858e+05
 138	  65	  23	   0	 814	1.492431e+05
 154	 156	  24	   0	 796	1.497948e+05
  18	 138	  25	   0	 792	1.489162e+05
 204	 120	  26	   0	 819	1.497493e+05
 161	 102	  27	   0	 837	1.490797e+05
 127	  84	  28	   0	 788	1.492648e+05
 158	  66	  29	   0	 825	1.488867e+05
 206	 157	  30	   0	 875	1.495483e+05
 202	 139	  31	   0	 823	1.492248e+05
 131	 121	  32	   0	 828	1.492015e+05
 128	 103	  33	   0	 781	1.489982e+05
  23	  85	  34	   1	   0	0.000000e+00
 144	  67	  35	   0	 788	1.494455e+05
 189	 158	  36	   0	 779	1.488010e+05
 157	 140	  37	   0	 812	1.494942e+05
  81	 122	  38	   0	 810	1.498999e+05
 107	 104	  39	   0	 841	1.498273e+05
  70	  86	  40	   0	 704	1.498542e+05
  37	  68	  41	   0	 884	1.497082e+05
  93	 159	  42	   1	   0	0.000000e+00
  30	 141	  43	   0	 831	1.496933e+05
 111	 123	  44	   0	 853	1.494558e+05
  98	 105	  45	   0	 804	1.491676e+05
 171	  87	  46	   0	 807	1.491772e+05
 163	  69	  47	   0	 801	1.491758e+05
 167	 160	  48	   0	 792	1.496547e+05
 188	 142	  49	   0	 789	1.495413e+05
  10	 124	  50	   0	 793	1.492051e+05
  65	 106	  51	   0	 754	1.493673e+05
  78	  88	  52	   0	 715	1.498349e+05
 123	  70	  53	   1	   0	0.000000e+00
 170	 161	  54	   0	 833	1.494968e+05
  19	 143	  55	   0	 783	1.492749e+05
 217	 125	  56	   0	 782	1.493984e+05
  64	 107	  57	   0	 809	1.498933e+05
 190	  89	  58	   0	 801	1.488674e+05
 165	  71	  59	   0	 856	1.497417e+05
 105	 151	  60	   1	   0	0.000000e+00
 100	 133	  61	   0	 880	1.494949e+05
 124	 115	  62	   0	 771	1.496013e+05
  91	  97	  63	   0	 792	1.496607e+05
 212	  79	  64	   0	 803	1.499501e+05
  11	 126	  65	   1	   0	0.000000e+00
  63	 152	  66	   0	 825	1.493429e+05
  59	 134	  67	   0	 783	1.499395e+05
 101	 116	  68	   0	 812	1.490382e+05
  66	  98	  69	   0	 783	1.492459e+05
 214	  80	  70	   0	 866	1.489637e+05
  20	  62	  71	   0	 782	1.495725e+05
 213	 150	  72	   0	 800	1.499340e+05
 142	 132	  73	   0	 819	1.495610e+05
 119	 114	  74	   0	 828	1.492639e+05
 224	  96	  75	   0	 808	1.493414e+05
 216	  78	  76	   0	 821	1.497503e+05
 129	 149	  78	   0	 880	1.497892e+05
   9	 131	  79	   0	 787	1.499262e+05
  89	 113	  80	   0	 792	1.497626e+05
 149	  95	  81	   0	 810	1.491621e+05
 177	  77	  82	   0	   0	0.000000e+00
 175	  59	  83	   0	 807	1.495381e+05
  69	 148	  84	   0	 820	1.490877e+05
  60	 130	  85	   0	 785	1.489421e+05
 225	 112	  86	   0	 795	1.490068e+05
  68	  94	  87	   0	 775	1.491545e+05
  88	  76	  88	   0	 807	1.498084e+05
  41	  58	  89	   0	 844	1.497049e+05
 113	 147	  90	   0	 840	1.495099e+05
  94	 129	  91	   0	 836	1.498089e+05
 139	 111	  92	   0	 797	1.499912e+05
 109	  93	  93	   0	 796	1.490772e+05
  35	  75	  94	   0	 799	1.496439e+05
  56	  57	  95	   0	 785	1.495595e+05
  12	 153	  96	   0	 777	1.488937e+05
 122	 135	  97	   0	 798	1.492446e+05
  82	 117	  98	   0	 804	1.497041e+05
  96	  99	  99	   0	 788	1.494455e+05
 143	  81	 100	   0	 790	1.494733e+05
  16	  63	 101	   0	 814	1.498361e+05
 222	 154	 102	   0	 811	1.498109e+05
 235	 136	 103	   0	 792	1.491275e+05
 184	 118	 104	   1	   0	0.000000e+00
 192	 100	 105	   0	 789	1.496161e+05
  17	  82	 106	   0	 805	1.491926e+05
 187	  64	 107	   0	 829	1.493754e+05
  53	  51	 108	   0	 792	1.489096e+05
 103	  56	 109	   0	 828	1.494040e+05
   6	  54	 110	   0	 805	1.494017e+05
 182	  52	 111	   0	 774	1.495528e+05
  76	  46	 112	   0	 721	1.499831e+05
 197	  47	 113	   0	 796	1.490191e+05
  92	  50	 114	   0	 794	1.493720e+05
 134	  49	 115	   0	 786	1.498513e+05
  49	  45	 116	   0	 822	1.499253e+05
 229	  44	 117	   0	   0	0.000000e+00
 218	  43	 118	   0	 842	1.494566e+05
  29	  48	 119	   0	 815	1.499049e+05
  27	  35	 120	   0	 806	1.494638e+05
 215	  36	 121	   0	 842	1.497253e+05
  34	  32	 122	   0	 809	1.487831e+05
 233	  30	 123	   0	 780	1.491656e+05
 179	  55	 124	   0	   0	0.000000e+00
  55	  34	 126	   0	 806	1.495772e+05
  67	  31	 127	   0	 800	1.499614e+05
  42	  29	 128	   0	 823	1.494744e+05
 145	  40	 129	   0	 788	1.489656e+05
  80	  41	 130	   0	 768	1.499904e+05
   4	  42	 131	   1	   0	0.000000e+00
  39	  16	 132	   0	 793	1.493313e+05
 136	  15	 133	   0	 778	1.491047e+05
 156	  37	 134	   0	 840	1.493697e+05
  48	  38	 135	   0	 791	1.497148e+05
 228	  39	 136	   0	 800	1.489432e+05
  99	  33	 137	   0	 806	1.489130e+05
 150	  11	 138	   0	 837	1.490514e+05
   2	  27	 139	   0	 803	1.495006e+05
  57	  25	 140	   0	 767	1.496954e+05
  51	  22	 141	   0	 785	1.498236e+05
   8	  21	 142	   0	 803	1.495761e+05
  74	  17	 143	   1	   0	0.000000e+00
  14	   3	 144	   0	 821	1.494955e+05
  84	   6	 145	   0	 769	1.492271e+05
 194	   1	 146	   0	 799	1.489683e+05
  62	   9	 147	   0	 848	1.499645e+05
 183	  10	 148	   0	 817	1.493428e+05
 172	   5	 149	   0	 770	1.497657e+05
 203	  20	 150	   0	 823	1.493478e+05
  97	  19	 151	   0	 820	1.499579e+05
  32	  26	 152	   0	 756	1.498306e+05
 227	  28	 153	   0	 849	1.498497e+05
 231	  24	 154	   0	 796	1.494376e+05
 168	  23	 155	   0	 792	1.489365e+05
 120	   2	 156	   0	 825	1.490426e+05
  52	   8	 157	   0	 800	1.499099e+05
  44	   7	 158	   0	 782	1.490587e+05
  61	  12	 159	   0	 801	1.490750e+05
   5	   4	 160	   0	 766	1.489559e+05
  40	  18	 161	   0	 812	1.496587e+05
  85	  53	 164	   0	 822	1.499915e+05
 121	  60	 165	   0	 815	1.496075e+05
 219	  13	 166	   0	   0	0.000000e+00
  71	  14	 167	   0	 659	1.490053e+05
1008	 172	 168	   2	1400	0.000000e+00
1006	 170	 169	   2	1350	0.000000e+00
1004	 168	 170	   2	1350	0.000000e+00
1003	 167	 171	   2	1350	0.000000e+00
1001	 165	 172	   2	1300	0.000000e+00
1002	 166	 173	   2	1300	0.000000e+00
1007	 171	 178	   2	1350	0.000000e+00
1005	 169	 179	   2	1400	0.000000e+00
