 178	  74	   0	   0	1027	6.979583e+05
  83	 110	   1	   1	   0	0.000000e+00
  38	 146	   2	   0	1011	6.965706e+05
 114	 128	   3	   0	1072	6.981166e+05
 160	 164	   4	   0	 988	6.999429e+05
 209	  92	   5	   0	1131	6.976791e+05
  90	 163	   6	   0	1010	6.963264e+05
 199	 145	   7	   0	1024	6.990009e+05
 207	 127	   8	   0	1045	6.972682e+05
 185	 109	   9	   0	1011	6.975861e+05
 153	  91	  10	   0	1051	6.995471e+05
 169	  73	  11	   0	1020	6.980281e+05
  58	 162	  12	   0	 975	6.959034e+05
 200	 144	  13	   0	1076	6.982662e+05
  87	  61	  14	   1	   0	0.000000e+00
 151	 108	  15	   0	1031	6.998011e+05
  79	  90	  16	   0	1005	6.984841e+05
 102	  72	  17	   0	1053	6.992781e+05
 118	 155	  18	   0	 991	6.968103e+05
 130	 137	  19	   0	1052	6.996473e+05
 210	 119	  20	   0	1068	6.982543e+05
 141	 101	  21	   1	   0	0.000000e+00
  73	  83	  22	   0	 950	6.993732e+05
 138	  65	  23	   0	1041	6.977428e+05
 154	 156	  24	   0	1017	6.961040e+05
  18	 138	  25	   0	1023	6.987001e+05
 204	 120	  26	   0	1052	6.965918e+05
 161	 102	  27	   0	1076	6.987190e+05
 127	  84	  28	   0	1000	6.956615e+05
 158	  66	  29	   0	1048	6.967197e+05
 206	 157	  30	   0	1130	6.973089e+05
 202	 139	  31	   0	1037	6.988309e+05
 131	 121	  32	   0	1064	6.975538e+05
 128	 103	  33	   0	1012	6.980020e+05
  23	  85	  34	   1	   0	0.000000e+00
 144	  67	  35	   0	1024	6.992140e+05
 189	 158	  36	   0	 986	6.981561e+05
 157	 140	  37	   0	1028	6.991382e+05
  81	 122	  38	   0	1039	6.965733e+05
 107	 104	  39	   0	1089	6.972212e+05
  70	  86	  40	   0	 959	6.985759e+05
  37	  68	  41	   0	1135	6.997770e+05
  93	 159	  42	   1	   0	0.000000e+00
  30	 141	  43	   0	1056	6.970856e+05
 111	 123	  44	   0	1102	6.984461e+05
  98	 105	  45	   0	1029	6.990238e+05
 171	  87	  46	   0	1008	6.982583e+05
 163	  69	  47	   0	1023	6.966748e+05
 167	 160	  48	   0	1007	6.960459e+05
 188	 142	  49	   0	1004	6.991401e+05
  10	 124	  50	   0	1011	6.958474e+05
  65	 106	  51	   0	 974	6.975975e+05
  78	  88	  52	   0	 996	6.998354e+05
 123	  70	  53	   1	   0	0.000000e+00
 170	 161	  54	   0	1068	6.996067e+05
  19	 143	  55	   0	 985	6.995131e+05
 217	 125	  56	   0	 988	6.991608e+05
  64	 107	  57	   0	1021	6.980759e+05
 190	  89	  58	   0	1019	6.981636e+05
 165	  71	  59	   0	1092	6.994121e+05
 105	 151	  60	   1	   0	0.000000e+00
 100	 133	  61	   0	1129	6.972237e+05
 124	 115	  62	   0	 977	6.989158e+05
  91	  97	  63	   0	1008	6.971391e+05
 212	  79	  64	   0	1033	6.986952e+05
  11	 126	  65	   1	   0	0.000000e+00
  63	 152	  66	   0	1062	6.969071e+05
  59	 134	  67	   0	1001	6.960142e+05
 101	 116	  68	   0	1018	6.981477e+05
  66	  98	  69	   0	1018	6.966268e+05
 214	  80	  70	   0	1114	6.991907e+05
  20	  62	  71	   0	 991	6.957577e+05
 213	 150	  72	   0	1020	6.978782e+05
 142	 132	  73	   0	1074	6.973811e+05
 119	 114	  74	   0	1058	6.975234e+05
 224	  96	  75	   0	1031	6.968436e+05
 216	  78	  76	   0	1061	6.975915e+05
 129	 149	  78	   0	1132	6.977392e+05
   9	 131	  79	   0	1009	6.963074e+05
  89	 113	  80	   0	1013	6.990350e+05
 149	  95	  81	   0	1051	6.989507e+05
 177	  77	  82	   0	   0	0.000000e+00
 175	  59	  83	   0	1032	6.972018e+05
  69	 148	  84	   0	1059	6.970549e+05
  60	 130	  85	   0	1002	6.999150e+05
 225	 112	  86	   0	1014	6.985796e+05
  68	  94	  87	   0	 986	6.981738e+05
  88	  76	  88	   0	1034	6.982713e+05
  41	  58	  89	   0	1100	6.977145e+05
 113	 147	  90	   0	1059	6.994829e+05
  94	 129	  91	   0	1062	6.961338e+05
 139	 111	  92	   0	1016	6.956925e+05
 109	  93	  93	   0	1008	6.967006e+05
  35	  75	  94	   0	1005	6.974359e+05
  56	  57	  95	   0	1000	6.956514e+05
  12	 153	  96	   0	 978	6.971480e+05
 122	 135	  97	   0	1013	6.986073e+05
  82	 117	  98	   0	1036	6.975305e+05
  96	  99	  99	   0	1024	6.992140e+05
 143	  81	 100	   0	1002	6.975299e+05
  16	  63	 101	   0	1035	6.986853e+05
 222	 154	 102	   0	1049	6.997672e+05
 235	 136	 103	   0	1016	6.968206e+05
 184	 118	 104	   1	   0	0.000000e+00
 192	 100	 105	   0	 988	6.999429e+05
  17	  82	 106	   0	1023	6.999413e+05
 187	  64	 107	   0	1073	6.969293e+05
  53	  51	 108	   0	1006	6.981375e+05
 103	  56	 109	   0	1069	6.972279e+05
   6	  54	 110	   0	1041	6.968960e+05
 182	  52	 111	   0	 991	6.956712e+05
  76	  46	 112	   0	 999	6.968203e+05
 197	  47	 113	   0	1012	6.993977e+05
  92	  50	 114	   0	1022	6.984109e+05
 134	  49	 115	   0	1003	6.961364e+05
  49	  45	 116	   0	1044	6.957532e+05
 229	  44	 117	   0	   0	0.000000e+00
 218	  43	 118	   0	1107	6.975239e+05
  29	  48	 119	   0	1039	6.972113e+05
  27	  35	 120	   0	1057	6.989988e+05
 215	  36	 121	   0	1077	6.973371e+05
  34	  32	 122	   0	1018	6.985581e+05
 233	  30	 123	   0	 987	6.969896e+05
 179	  55	 124	   0	   0	0.000000e+00
  55	  34	 126	   0	1035	6.980301e+05
  67	  31	 127	   0	1024	6.997930e+05
  42	  29	 128	   0	1028	6.966142e+05
 145	  40	 129	   0	 996	6.958086e+05
  80	  41	 130	   0	1002	6.995941e+05
   4	  42	 131	   1	   0	0.000000e+00
  39	  16	 132	   0	1017	6.983080e+05
 136	  15	 133	   0	1001	6.989520e+05
 156	  37	 134	   0	1098	6.986879e+05
  48	  38	 135	   0	1035	6.968736e+05
 228	  39	 136	   0	1017	6.986637e+05
  99	  33	 137	   0	1040	6.996346e+05
 150	  11	 138	   0	1064	6.973421e+05
   2	  27	 139	   0	1028	6.983209e+05
  57	  25	 140	   0	 991	6.982181e+05
  51	  22	 141	   0	 994	6.982151e+05
   8	  21	 142	   0	1048	6.970990e+05
  74	  17	 143	   1	   0	0.000000e+00
  14	   3	 144	   0	1066	6.978641e+05
  84	   6	 145	   0	1007	6.995981e+05
 194	   1	 146	   0	1036	6.969523e+05
  62	   9	 147	   0	1087	6.973951e+05
 183	  10	 148	   0	1057	6.985274e+05
 172	   5	 149	   0	 982	6.999195e+05
 203	  20	 150	   0	1038	6.958033e+05
  97	  19	 151	   0	1066	6.995468e+05
  32	  26	 152	   0	 961	6.974816e+05
 227	  28	 153	   0	1081	6.982061e+05
 231	  24	 154	   0	1028	6.968859e+05
 168	  23	 155	   0	1015	6.985971e+05
 120	   2	 156	   0	1067	6.993433e+05
  52	   8	 157	   0	1021	6.986906e+05
  44	   7	 158	   0	1013	6.988781e+05
  61	  12	 159	   0	1039	6.990753e+05
   5	   4	 160	   0	 985	6.975759e+05
  40	  18	 161	   0	1038	6.995349e+05
  85	  53	 164	   0	1056	6.983129e+05
 121	  60	 165	   0	1028	6.958000e+05
 219	  13	 166	   0	   0	0.000000e+00
  71	  14	 167	   0	 932	6.991460e+05
1008	 172	 168	   2	1400	0.000000e+00
1006	 170	 169	   2	1350	0.000000e+00
1004	 168	 170	   2	1350	0.000000e+00
1003	 167	 171	   2	1350	0.000000e+00
1001	 165	 172	   2	1300	0.000000e+00
1002	 166	 173	   2	1300	0.000000e+00
1007	 171	 178	   2	1350	0.000000e+00
1005	 169	 179	   2	1400	0.000000e+00
